Tractor timeseries
…
Although the visualisations are helpful, we can also calculate actual accuracy metrics to see which model is best.

accuracy_fun <- function(entity){
  calibration_tbl[[entity]] %>%
    modeltime::modeltime_accuracy() %>%
    dplyr::mutate(entity = entity) %>%
    dplyr::select(entity, tidyselect::everything())
}
accuracy_metrics <- purrr::map_dfr(entity_shown, accuracy_fun) %>%
  dplyr::arrange(entity, mae)
accuracy_metrics

# A tibble: 36 x 10
   entity .model_id .model_desc .type     mae  mape  mase smape
   <chr>      <int> <chr>       <chr>   <dbl> <dbl> <dbl> <dbl>
 1 Afgha~         2 ETS(M,AD,M) Test  2.55e-3  1.78 10.0   1.80
 2 Afgha~         1 ARIMA(2,1,~ Test  2.66e-3  1.86 10.5   1.85
 3 Afgha~         3 PROPHET     Test  1.66e-2 11.6  65.3  12.5 
 4 Bahra~         3 PROPHET     Test  1.04e+1 17.1   3.33 15.3 
 5 Bahra~         2 ETS(M,N,A)  Test  1.46e+1 20.8   4.66 24.0 
 6 Bahra~         1 ARIMA(0,1,~ Test  1.56e+1 22.2   4.98 25.9 
 7 Belar~         2 ETS(M,AD,M) Test  1.99e+0  2.25  4.63  2.28
 8 Belar~         1 ARIMA(0,1,~ Test  2.04e+0  2.32  4.75  2.35
 9 Belar~         3 PROPHET     Test  6.13e+0  6.92 14.2   7.18
10 Burun~         1 ARIMA(0,1,~ Test  8.22e-2  4.60 13.1   4.48
# ... with 26 more rows, and 2 more variables: rmse <dbl>, rsq <dbl>
…
