Chopping ingredients
…
ingredients$single_ingredients <- NA
for(word in single_words){
  ingredients <- ingredients %>%
    dplyr::mutate(single_ingredients = ifelse(!is.na(single_ingredients), 
                                              single_ingredients,
                                              stringr::str_match(ingredient, paste0('(^| )', word, '($| )'))))
}
ingredients$single_ingredients <- gsub('(^ )|( $)', '', ingredients$single_ingredients)

ingredients %>%
  dplyr::group_by(single_ingredients) %>%
  dplyr::summarise(count = n()) %>%
  dplyr::arrange(-count)

# A tibble: 580 x 2
   single_ingredients count
   <chr>              <int>
 1 <NA>                3434
 2 duck                  50
 3 potatoes              48
 4 coconut               47
 5 bacon                 44
 6 mushrooms             43
 7 beer                  42
 8 turkey                41
 9 ginger                35
10 watermelon            35
# ... with 570 more rows
…
ingredients$bigram_ingredients <- NA
for(bigram in bigrams){
  ingredients <- ingredients %>%
    dplyr::mutate(bigram_ingredients = ifelse(is.na(bigram_ingredients), # If we already have a bigram ingredient, keep it
                                              stringr::str_match(ingredient, as.character(bigram)),
                                              bigram_ingredients))
}

ingredients %>%
  dplyr::group_by(bigram_ingredients) %>%
  dplyr::summarise(count = n()) %>%
  dplyr::arrange(-count)

# A tibble: 1,788 x 2
   bigram_ingredients count
   <chr>              <int>
 1 <NA>                3402
 2 ice cream             55
 3 sweet potato          27
 4 peanut butter         26
 5 white chocolate       19
 6 cream cheese          18
 7 brussels sprouts      17
 8 bok choy              15
 9 potato chips          15
10 blood orange          14
# ... with 1,778 more rows
This covers roughly the same number of rows as the single ingredients! But possibly not the same ones.

Combine heuristics

Since the single-word heuristic will group more ingredients into one, that one takes precedence. Wherever that one didn’t match, we can fill in the bigram instead.

ingr_grouped <- ingredients %>%
  dplyr::mutate(ingr_group = ifelse(!is.na(single_ingredients), single_ingredients, bigram_ingredients))

ingr_grouped %>%
  dplyr::group_by(ingr_group) %>%
  dplyr::summarise(count = n()) %>%
  dplyr::arrange(-count)

# A tibble: 2,359 x 2
   ingr_group count
   <chr>      <int>
 1 <NA>         207
 2 duck          50
 3 potatoes      48
 4 coconut       47
 5 bacon         44
 6 ice cream     43
 7 mushrooms     43
 8 beer          42
 9 turkey        41
10 ginger        35
# ... with 2,349 more rows
…
